[
  {
    "id": "3cb5442f6817fa0535167615c0b88f970e98b160",
    "individual_note": true,
    "notes": [
      {
        "id": 1420680649,
        "type": null,
        "body": "**JIRA Hook Readiness Report**\n\nTarget Branch: main  \n\nThis merge request **fails** jirahook validation: ~\"JIRA::Missing\"  \n\n##### JIRA Issue tags:  \n|JIRA Issue|CVEs|Commits|Readiness|Policy Check|Notes|\n|:------|:------|:------|:------|:------|:------|\n|[UNTAGGED](https://issues.redhat.com/browse/UNTAGGED) (UNKNOWN)|None|5c2295d082fe72a9096c6e90ba5df2471cc835d8|MISSING|Check not done: No JIRA Issue|See 1|\n1. No `JIRA` tag was found in these commits.  This project requires that each commit have at least one `JIRA` tag.  Please double-check the tag formatting and/or add a `JIRA: <issue_URL>` tag for each JIRA Issue.  \n\n\n\n\nGuidelines for these entries can be found in CommitRules: https://red.ht/kwf_commit_rules.  \nTo request re-evalution either remove the JIRA label from the MR or add a comment with only the text: request-jirahook-evaluation.\n\n---\n\n<small>Updated 2024-07-03 21:39 UTC by jirahook - [KWF FAQ](https://red.ht/kernel_workflow_doc) - [Slack #team-kernel-workflow](https://redhat-internal.slack.com/archives/C04LRUPMJQ5) - [Source](https://gitlab.com/cki-project/kernel-workflow/-/blob/main/webhook/jirahook.py) - [Documentation](https://gitlab.com/cki-project/kernel-workflow/-/blob/main/docs/README.jirahook.md) - [Report an issue](https://gitlab.com/cki-project/kernel-workflow/-/issues/new?issue%5Btitle%5D=jirahook%20webhook%20issue)</small>",
        "attachment": null,
        "author": {
          "id": 8143989,
          "username": "cki-kwf-bot",
          "name": "CKI KWF Bot",
          "state": "active",
          "locked": false,
          "avatar_url": "https://secure.gravatar.com/avatar/09f64894ad2dda42a9783c16ca1eca3a12076da842d573afea3d5f50206c659f?s=80&d=identicon",
          "web_url": "https://gitlab.com/cki-kwf-bot"
        },
        "created_at": "2023-06-06T19:18:17.495Z",
        "updated_at": "2024-07-03T21:39:03.780Z",
        "system": false,
        "noteable_id": 228770482,
        "noteable_type": "MergeRequest",
        "project_id": 20363472,
        "resolvable": false,
        "confidential": false,
        "internal": false,
        "imported": false,
        "imported_from": "none",
        "noteable_iid": 777,
        "commands_changes": {}
      }
    ]
  },
  {
    "id": "3733e8b4b0ce707cab9908517e5ee875237ce03f",
    "individual_note": true,
    "notes": [
      {
        "id": 1420680685,
        "type": null,
        "body": "**Bughook Readiness Report**\n\nTarget Branch: main  \n\nThis merge request **fails** bughook validation: ~\"Bugzilla::NeedsReview\"  \n\n##### Bugzilla tags:  \n|BZ|CVEs|Commits|Readiness|Policy Check|Notes|\n|:------|:------|:------|:------|:------|:------|\n|UNTAGGED|None|5c2295d082fe72a9096c6e90ba5df2471cc835d8|NEEDS_REVIEW|Check not done: No BZ|See 1|\n1. No `Bugzilla` tag was found in these commits.  This project requires that each commit have at least one `Bugzilla` tag.  Please double-check the tag formatting and/or add a `Bugzilla: <bugzilla_URL>` tag for each BZ.  \n\n\n\n\nGuidelines for these entries can be found in CommitRules: https://red.ht/kwf_commit_rules.  \nTo request re-evalution either remove the Bugzilla label from the MR or add a comment with only the text: request-bughook-evaluation.\n\nLast updated at 2023-07-20T11:31:13.",
        "attachment": null,
        "author": {
          "id": 8143989,
          "username": "cki-kwf-bot",
          "name": "CKI KWF Bot",
          "state": "active",
          "locked": false,
          "avatar_url": "https://secure.gravatar.com/avatar/09f64894ad2dda42a9783c16ca1eca3a12076da842d573afea3d5f50206c659f?s=80&d=identicon",
          "web_url": "https://gitlab.com/cki-kwf-bot"
        },
        "created_at": "2023-06-06T19:18:19.020Z",
        "updated_at": "2023-07-20T11:31:13.337Z",
        "system": false,
        "noteable_id": 228770482,
        "noteable_type": "MergeRequest",
        "project_id": 20363472,
        "resolvable": false,
        "confidential": false,
        "internal": false,
        "imported": false,
        "imported_from": "none",
        "noteable_iid": 777,
        "commands_changes": {}
      }
    ]
  },
  {
    "id": "6e14758e451c2fe4178055fc11938731ef9a786a",
    "individual_note": true,
    "notes": [
      {
        "id": 1420680736,
        "type": null,
        "body": "**DCO Signoff Check Report** ~\"Signoff::OK\"\n\nThe DCO Signoff Check for all commits and the MR description has **PASSED**.\n\n\n\nLast updated at 2023-07-20T11:31:13.",
        "attachment": null,
        "author": {
          "id": 8143989,
          "username": "cki-kwf-bot",
          "name": "CKI KWF Bot",
          "state": "active",
          "locked": false,
          "avatar_url": "https://secure.gravatar.com/avatar/09f64894ad2dda42a9783c16ca1eca3a12076da842d573afea3d5f50206c659f?s=80&d=identicon",
          "web_url": "https://gitlab.com/cki-kwf-bot"
        },
        "created_at": "2023-06-06T19:18:21.156Z",
        "updated_at": "2023-07-20T11:31:14.268Z",
        "system": false,
        "noteable_id": 228770482,
        "noteable_type": "MergeRequest",
        "project_id": 20363472,
        "resolvable": false,
        "confidential": false,
        "internal": false,
        "imported": false,
        "imported_from": "none",
        "noteable_iid": 777,
        "commands_changes": {}
      }
    ]
  },
  {
    "id": "41197dcde58366c1ded1ddaa684ed07d58413fc9",
    "individual_note": true,
    "notes": [
      {
        "id": 1420680815,
        "type": null,
        "body": "<br>\n\n**Upstream Commit ID Readiness Report**: ~\"CommitRefs::OK\"\n\nThis report indicates how backported commits compare to the upstream source commit.  Matching (or not matching) is not a guarantee of correctness.  KABI, missing or un-backportable dependencies, or existing RHEL differences against upstream may lead to a difference in commits. As always, care should be taken in the review to ensure code correctness.\n\n\nTotal number of commits analyzed: **1**<br>\nMerge Request **passes** commit ID validation, references all present.  \n\n\nLast updated at 2023-06-06T19:18:23.",
        "attachment": null,
        "author": {
          "id": 8143989,
          "username": "cki-kwf-bot",
          "name": "CKI KWF Bot",
          "state": "active",
          "locked": false,
          "avatar_url": "https://secure.gravatar.com/avatar/09f64894ad2dda42a9783c16ca1eca3a12076da842d573afea3d5f50206c659f?s=80&d=identicon",
          "web_url": "https://gitlab.com/cki-kwf-bot"
        },
        "created_at": "2023-06-06T19:18:23.475Z",
        "updated_at": "2023-06-06T19:18:23.475Z",
        "system": false,
        "noteable_id": 228770482,
        "noteable_type": "MergeRequest",
        "project_id": 20363472,
        "resolvable": false,
        "confidential": false,
        "internal": false,
        "imported": false,
        "imported_from": "none",
        "noteable_iid": 777,
        "commands_changes": {}
      }
    ]
  },
  {
    "id": "6d6b5ae87017f201b628345982883a178c5851f7",
    "individual_note": true,
    "notes": [
      {
        "id": 1420680858,
        "type": null,
        "body": "**CKI Pipelines Status:** ~\"CKI::Failed\"  \n  \n#### Blocking pipelines  \n  \n##### Failed pipelines  \nThese pipelines have failed or been canceled.  \n  \n- ~\"CKI_RHEL::Failed::build\" [rhel8_merge_request](https://gitlab.com/redhat/red-hat-ci-tools/kernel/cki-internal-pipelines/cki-internal-contributors/-/pipelines/891430531) failed at the build stage.  \n    > **Build:** aarch64 https://datawarehouse.cki-project.org/kcidb/builds/358780  \n    > **Compiler:** gcc (GCC) 8.5.0 20210514 (Red Hat 8.5.0-18)  \n    > **Command:** rpmbuild --target aarch64 --with up --with zfcpdump --without trace --without realtime --without arm64_64k --without debug  \n    > **Config:** srpm: kernel-aarch64.config  \n    > **Config url:** https://s3.upshift.redhat.com/DH-PROD-CKI/internal-artifacts/891430531/build%20aarch64/4424315782/artifacts/kernel-aarch64.config  \n    > **Log excerpt:**  \n    ~~~  \n    00:03:08 Extracted 24 types  \n    00:03:08 Extracted 2 actions  \n    00:03:08 Pass 1  \n    00:03:08 Pass 2  \n    00:03:33 drivers/hid/hid-logitech-hidpp.c: In function ‘hidpp_send_message_sync’:  \n    00:03:33 drivers/hid/hid-logitech-hidpp.c:319:15: error: ‘HIDPP20_ERROR_BUSY’ undeclared (first use in this function); did you mean ‘HIDPP_ERROR_BUSY’?  \n    00:03:33     if (ret != HIDPP20_ERROR_BUSY) {  \n    00:03:33                ^~~~~~~~~~~~~~~~~~  \n    00:03:33                HIDPP_ERROR_BUSY  \n    00:03:33 drivers/hid/hid-logitech-hidpp.c:319:15: note: each undeclared identifier is reported only once for each function it appears in  \n    00:03:33 make[2]: *** [scripts/Makefile.build:323: drivers/hid/hid-logitech-hidpp.o] Error 1  \n    00:03:33 make[1]: *** [scripts/Makefile.build:558: drivers/hid] Error 2  \n    00:03:33 make[1]: *** Waiting for unfinished jobs....  \n    00:04:16 make: *** [Makefile:1121: drivers] Error 2  \n    00:04:16 make: *** Waiting for unfinished jobs....  \n    00:04:28 + exit 1  \n    00:04:28 error: Bad exit status from /var/tmp/rpm-tmp.n1R5BX (%build)  \n    00:04:28   \n    00:04:28   \n    00:04:28 RPM build errors:  \n    00:04:28     Bad exit status from /var/tmp/rpm-tmp.n1R5BX (%build)  \n    ~~~  \n  \n    > **Build:** ppc64le https://datawarehouse.cki-project.org/kcidb/builds/358781  \n    > **Compiler:** powerpc64le-linux-gnu-gcc (GCC) 8.5.0 20210514 (Red Hat 8.5.0-15_TESTING_ONLY_NOT_FOR_PRODUCTION)  \n    > **Command:** rpmbuild --target ppc64le --with cross --with up --with zfcpdump --without bpftool --without selftests --without ipaclones --without perf --without tools --without trace --without realtime --without arm64_64k --without debug  \n    > **Config:** srpm: kernel-ppc64le.config  \n    > **Config url:** https://s3.upshift.redhat.com/DH-PROD-CKI/internal-artifacts/891430531/build%20ppc64le/4424315781/artifacts/kernel-ppc64le.config  \n    > **Log excerpt:**  \n    ~~~  \n    00:03:11 Extracted 24 types  \n    00:03:11 Extracted 2 actions  \n    00:03:11 Pass 1  \n    00:03:11 Pass 2  \n    00:03:33 drivers/hid/hid-logitech-hidpp.c: In function ‘hidpp_send_message_sync’:  \n    00:03:33 drivers/hid/hid-logitech-hidpp.c:319:15: error: ‘HIDPP20_ERROR_BUSY’ undeclared (first use in this function); did you mean ‘HIDPP_ERROR_BUSY’?  \n    00:03:33     if (ret != HIDPP20_ERROR_BUSY) {  \n    00:03:33                ^~~~~~~~~~~~~~~~~~  \n    00:03:33                HIDPP_ERROR_BUSY  \n    00:03:33 drivers/hid/hid-logitech-hidpp.c:319:15: note: each undeclared identifier is reported only once for each function it appears in  \n    00:03:33 make[2]: *** [scripts/Makefile.build:323: drivers/hid/hid-logitech-hidpp.o] Error 1  \n    00:03:33 make[1]: *** [scripts/Makefile.build:558: drivers/hid] Error 2  \n    00:03:33 make[1]: *** Waiting for unfinished jobs....  \n    00:05:00 make: *** [Makefile:1121: drivers] Error 2  \n    00:05:00 + exit 1  \n    00:05:00 error: Bad exit status from /var/tmp/rpm-tmp.xUFQGS (%build)  \n    00:05:00   \n    00:05:00   \n    00:05:00 RPM build errors:  \n    00:05:00     Bad exit status from /var/tmp/rpm-tmp.xUFQGS (%build)  \n    ~~~  \n  \n    > **Build:** x86_64 https://datawarehouse.cki-project.org/kcidb/builds/358783  \n    > **Compiler:** gcc (GCC) 8.5.0 20210514 (Red Hat 8.5.0-18)  \n    > **Command:** rpmbuild --target x86_64 --with up --with zfcpdump --without trace --without realtime --without arm64_64k --without debug  \n    > **Config:** srpm: kernel-x86_64.config  \n    > **Config url:** https://s3.upshift.redhat.com/DH-PROD-CKI/internal-artifacts/891430531/build%20x86_64/4424315778/artifacts/kernel-x86_64.config  \n    > **Log excerpt:**  \n    ~~~  \n    00:07:28 Extracted 24 types  \n    00:07:28 Extracted 2 actions  \n    00:07:28 Pass 1  \n    00:07:28 Pass 2  \n    00:08:06 drivers/hid/hid-logitech-hidpp.c: In function ‘hidpp_send_message_sync’:  \n    00:08:06 drivers/hid/hid-logitech-hidpp.c:319:15: error: ‘HIDPP20_ERROR_BUSY’ undeclared (first use in this function); did you mean ‘HIDPP_ERROR_BUSY’?  \n    00:08:06     if (ret != HIDPP20_ERROR_BUSY) {  \n    00:08:06                ^~~~~~~~~~~~~~~~~~  \n    00:08:06                HIDPP_ERROR_BUSY  \n    00:08:06 drivers/hid/hid-logitech-hidpp.c:319:15: note: each undeclared identifier is reported only once for each function it appears in  \n    00:08:06 make[2]: *** [scripts/Makefile.build:323: drivers/hid/hid-logitech-hidpp.o] Error 1  \n    00:08:06 make[2]: *** Waiting for unfinished jobs....  \n    00:08:06 make[1]: *** [scripts/Makefile.build:558: drivers/hid] Error 2  \n    00:08:06 make[1]: *** Waiting for unfinished jobs....  \n    00:09:54 drivers/gpu/drm/vmwgfx/.tmp_vmwgfx_msg.o: warning: objtool: vmw_host_get_guestinfo()+0x8e: unreachable instruction  \n    00:11:44 make: *** [Makefile:1121: drivers] Error 2  \n    00:11:44 + exit 1  \n    00:11:44 error: Bad exit status from /var/tmp/rpm-tmp.bsCrTa (%build)  \n    00:11:44   \n    00:11:44   \n    00:11:44 RPM build errors:  \n    00:11:44     Bad exit status from /var/tmp/rpm-tmp.bsCrTa (%build)  \n    ~~~  \n  \n    > **Build:** x86_64 debug https://datawarehouse.cki-project.org/kcidb/builds/358784  \n    > **Compiler:** gcc (GCC) 8.5.0 20210514 (Red Hat 8.5.0-18)  \n    > **Command:** rpmbuild --target x86_64 --with up --with zfcpdump --with debug --without trace --without up --without realtime --without arm64_64k  \n    > **Config:** srpm: kernel-x86_64-debug.config  \n    > **Config url:** https://s3.upshift.redhat.com/DH-PROD-CKI/internal-artifacts/891430531/build%20x86_64%20debug/4424315779/artifacts/kernel-x86_64-debug.config  \n    > **Log excerpt:**  \n    ~~~  \n    00:06:10 Extracted 24 types  \n    00:06:10 Extracted 2 actions  \n    00:06:10 Pass 1  \n    00:06:10 Pass 2  \n    00:07:08 drivers/hid/hid-logitech-hidpp.c: In function ‘hidpp_send_message_sync’:  \n    00:07:08 drivers/hid/hid-logitech-hidpp.c:319:15: error: ‘HIDPP20_ERROR_BUSY’ undeclared (first use in this function); did you mean ‘HIDPP_ERROR_BUSY’?  \n    00:07:08     if (ret != HIDPP20_ERROR_BUSY) {  \n    00:07:08                ^~~~~~~~~~~~~~~~~~  \n    00:07:08                HIDPP_ERROR_BUSY  \n    00:07:08 drivers/hid/hid-logitech-hidpp.c:319:15: note: each undeclared identifier is reported only once for each function it appears in  \n    00:07:08 make[2]: *** [scripts/Makefile.build:323: drivers/hid/hid-logitech-hidpp.o] Error 1  \n    00:07:08 make[1]: *** [scripts/Makefile.build:558: drivers/hid] Error 2  \n    00:07:08 make[1]: *** Waiting for unfinished jobs....  \n    00:07:48 drivers/gpu/drm/vmwgfx/.tmp_vmwgfx_msg.o: warning: objtool: vmw_host_get_guestinfo()+0xf7: unreachable instruction  \n    00:08:44 make: *** [Makefile:1121: drivers] Error 2  \n    00:08:44 + exit 1  \n    00:08:44 error: Bad exit status from /var/tmp/rpm-tmp.ScW3qp (%build)  \n    00:08:44   \n    00:08:44   \n    00:08:44 RPM build errors:  \n    00:08:44     Bad exit status from /var/tmp/rpm-tmp.ScW3qp (%build)  \n    ~~~  \n  \n  \n  \n#### Non-blocking pipelines  \n  \n##### Failed pipelines  \nThese pipelines have failed or been canceled.  \n  \n- ~\"CKI_RT::Warning\" [rhel8_realtime_check_merge_request](https://gitlab.com/redhat/red-hat-ci-tools/kernel/cki-internal-pipelines/cki-internal-contributors/-/pipelines/1173223738) failed at the build stage.  \n    > **Build:** x86_64 https://datawarehouse.cki-project.org/kcidb/builds/467021  \n    > **Compiler:** gcc (GCC) 8.5.0 20210514 (Red Hat 8.5.0-20)  \n    > **Command:** rpmbuild --target x86_64 --with up --with realtime --without trace --without arm64_16k --without arm64_64k --without base --without debug --without zfcpdump  \n    > **Config:** srpm: kernel-rt-x86_64.config  \n    > **Config url:** https://s3.upshift.redhat.com/DH-PROD-CKI/internal-artifacts/1173223738/build_x86_64/6149786570/artifacts/kernel-rt-x86_64.config  \n    > **Full build log:** https://s3.upshift.redhat.com/DH-PROD-CKI/internal-artifacts/1173223738/build_x86_64/6149786570/artifacts/build.log  \n    > **Log excerpt:**  \n    ~~~  \n    00:04:58 Pass 1  \n    00:04:58 Pass 2  \n    00:05:00 arch/x86/kvm/svm/.tmp_vmenter.o: warning: objtool: __svm_vcpu_run()+0x56: stack state mismatch: cfa1=7+64 cfa2=7+48  \n    00:05:00 arch/x86/kvm/svm/.tmp_vmenter.o: warning: objtool: __svm_sev_es_vcpu_run()+0x1b: stack state mismatch: cfa1=7+56 cfa2=7+40  \n    00:06:41 drivers/hid/hid-logitech-hidpp.c: In function ‘hidpp_send_message_sync’:  \n    00:06:41 drivers/hid/hid-logitech-hidpp.c:319:15: error: ‘HIDPP20_ERROR_BUSY’ undeclared (first use in this function); did you mean ‘HIDPP_ERROR_BUSY’?  \n    00:06:41     if (ret != HIDPP20_ERROR_BUSY) {  \n    00:06:41                ^~~~~~~~~~~~~~~~~~  \n    00:06:41                HIDPP_ERROR_BUSY  \n    00:06:41 drivers/hid/hid-logitech-hidpp.c:319:15: note: each undeclared identifier is reported only once for each function it appears in  \n    00:06:41 make[2]: *** [scripts/Makefile.build:323: drivers/hid/hid-logitech-hidpp.o] Error 1  \n    00:06:41 make[1]: *** [scripts/Makefile.build:558: drivers/hid] Error 2  \n    00:06:41 make[1]: *** Waiting for unfinished jobs....  \n    00:07:36 drivers/gpu/drm/vmwgfx/.tmp_vmwgfx_msg.o: warning: objtool: vmw_host_get_guestinfo()+0x9c: unreachable instruction  \n    00:09:04 make: *** [Makefile:1121: drivers] Error 2  \n    00:09:04 + exit 1  \n    00:09:04 error: Bad exit status from /var/tmp/rpm-tmp.E7wiM4 (%build)  \n    00:09:04   \n    00:09:04   \n    00:09:04 RPM build errors:  \n    00:09:04     Bad exit status from /var/tmp/rpm-tmp.E7wiM4 (%build)  \n    ~~~  \n  \n  \n\n---\n\n<small>Updated 2024-02-12 11:08 UTC by ckihook - [CKI FAQ](https://cki-project.org/l/devel-faq) - [Slack #team-kernel-cki](https://redhat-internal.slack.com/archives/C04KPCFGDTN) - [Source](https://gitlab.com/cki-project/kernel-workflow/-/blob/main/webhook/ckihook.py) - [Documentation](https://gitlab.com/cki-project/kernel-workflow/-/blob/main/docs/README.ckihook.md) - [Report an issue](https://gitlab.com/cki-project/infrastructure/-/issues/new?issue%5Btitle%5D=ckihook%20webhook%20issue)</small>",
        "attachment": null,
        "author": {
          "id": 8143989,
          "username": "cki-kwf-bot",
          "name": "CKI KWF Bot",
          "state": "active",
          "locked": false,
          "avatar_url": "https://secure.gravatar.com/avatar/09f64894ad2dda42a9783c16ca1eca3a12076da842d573afea3d5f50206c659f?s=80&d=identicon",
          "web_url": "https://gitlab.com/cki-kwf-bot"
        },
        "created_at": "2023-06-06T19:18:24.860Z",
        "updated_at": "2024-02-12T11:08:59.947Z",
        "system": false,
        "noteable_id": 228770482,
        "noteable_type": "MergeRequest",
        "project_id": 20363472,
        "resolvable": false,
        "confidential": false,
        "internal": false,
        "imported": false,
        "imported_from": "none",
        "noteable_iid": 777,
        "commands_changes": {}
      }
    ]
  },
  {
    "id": "27c931b6d1af2cc5f8714d4243e9f80ac83d2ead",
    "individual_note": true,
    "notes": [
      {
        "id": 1420695309,
        "type": null,
        "body": "**Mergeability Summary:** ~\"Merge::OK\"\n\nThis MR can be merged cleanly to its target branch.\n\nLast updated at 2023-06-06T19:29:31.",
        "attachment": null,
        "author": {
          "id": 8143989,
          "username": "cki-kwf-bot",
          "name": "CKI KWF Bot",
          "state": "active",
          "locked": false,
          "avatar_url": "https://secure.gravatar.com/avatar/09f64894ad2dda42a9783c16ca1eca3a12076da842d573afea3d5f50206c659f?s=80&d=identicon",
          "web_url": "https://gitlab.com/cki-kwf-bot"
        },
        "created_at": "2023-06-06T19:29:31.797Z",
        "updated_at": "2023-06-06T19:29:31.797Z",
        "system": false,
        "noteable_id": 228770482,
        "noteable_type": "MergeRequest",
        "project_id": 20363472,
        "resolvable": false,
        "confidential": false,
        "internal": false,
        "imported": false,
        "imported_from": "none",
        "noteable_iid": 777,
        "commands_changes": {}
      }
    ]
  },
  {
    "id": "a2ffe8b36ebc64805388968997bb8a1eee3b22f2",
    "individual_note": true,
    "notes": [
      {
        "id": 1422700177,
        "type": null,
        "body": "mentioned in merge request cki-project/kernel-webhooks!1117",
        "attachment": null,
        "author": {
          "id": 6616462,
          "username": "jwilsonrh",
          "name": "Jarod Wilson",
          "state": "active",
          "locked": false,
          "avatar_url": "https://gitlab.com/uploads/-/system/user/avatar/6616462/avatar.png",
          "web_url": "https://gitlab.com/jwilsonrh"
        },
        "created_at": "2023-06-07T21:00:46.782Z",
        "updated_at": "2023-06-07T21:00:46.784Z",
        "system": true,
        "noteable_id": 228770482,
        "noteable_type": "MergeRequest",
        "project_id": 20363472,
        "resolvable": false,
        "confidential": false,
        "internal": false,
        "imported": false,
        "imported_from": "none",
        "noteable_iid": 777,
        "commands_changes": {}
      }
    ]
  },
  {
    "id": "87ca40eaed3e934fd2f1776c5c5c4c9aff717c47",
    "individual_note": true,
    "notes": [
      {
        "id": 1476931977,
        "type": null,
        "body": "No missing upstream fixes for MR 777 found at this time.\n\n\nLast updated at 2023-07-19T15:14:12.",
        "attachment": null,
        "author": {
          "id": 8143989,
          "username": "cki-kwf-bot",
          "name": "CKI KWF Bot",
          "state": "active",
          "locked": false,
          "avatar_url": "https://secure.gravatar.com/avatar/09f64894ad2dda42a9783c16ca1eca3a12076da842d573afea3d5f50206c659f?s=80&d=identicon",
          "web_url": "https://gitlab.com/cki-kwf-bot"
        },
        "created_at": "2023-07-19T14:39:35.448Z",
        "updated_at": "2023-07-19T15:14:13.916Z",
        "system": false,
        "noteable_id": 228770482,
        "noteable_type": "MergeRequest",
        "project_id": 20363472,
        "resolvable": false,
        "confidential": false,
        "internal": false,
        "imported": false,
        "imported_from": "none",
        "noteable_iid": 777,
        "commands_changes": {}
      }
    ]
  },
  {
    "id": "d785d194e5878db4952eaf345ff4bb003472a410",
    "individual_note": true,
    "notes": [
      {
        "id": 1476936693,
        "type": null,
        "body": "changed the description",
        "attachment": null,
        "author": {
          "id": 6616462,
          "username": "jwilsonrh",
          "name": "Jarod Wilson",
          "state": "active",
          "locked": false,
          "avatar_url": "https://gitlab.com/uploads/-/system/user/avatar/6616462/avatar.png",
          "web_url": "https://gitlab.com/jwilsonrh"
        },
        "created_at": "2023-07-19T14:41:43.298Z",
        "updated_at": "2023-07-19T14:41:43.304Z",
        "system": true,
        "noteable_id": 228770482,
        "noteable_type": "MergeRequest",
        "project_id": 20363472,
        "resolvable": false,
        "confidential": false,
        "internal": false,
        "imported": false,
        "imported_from": "none",
        "noteable_iid": 777,
        "commands_changes": {}
      }
    ]
  },
  {
    "id": "7af67adab38db90bf8ba88933245adb006aee32c",
    "individual_note": true,
    "notes": [
      {
        "id": 1476988261,
        "type": null,
        "body": "changed the description",
        "attachment": null,
        "author": {
          "id": 6616462,
          "username": "jwilsonrh",
          "name": "Jarod Wilson",
          "state": "active",
          "locked": false,
          "avatar_url": "https://gitlab.com/uploads/-/system/user/avatar/6616462/avatar.png",
          "web_url": "https://gitlab.com/jwilsonrh"
        },
        "created_at": "2023-07-19T15:10:41.498Z",
        "updated_at": "2023-07-19T15:10:41.500Z",
        "system": true,
        "noteable_id": 228770482,
        "noteable_type": "MergeRequest",
        "project_id": 20363472,
        "resolvable": false,
        "confidential": false,
        "internal": false,
        "imported": false,
        "imported_from": "none",
        "noteable_iid": 777,
        "commands_changes": {}
      }
    ]
  },
  {
    "id": "5bc722b483f11e3f5fa6f154e55c82fb30f9102f",
    "individual_note": true,
    "notes": [
      {
        "id": 1476992773,
        "type": null,
        "body": "changed the description",
        "attachment": null,
        "author": {
          "id": 6616462,
          "username": "jwilsonrh",
          "name": "Jarod Wilson",
          "state": "active",
          "locked": false,
          "avatar_url": "https://gitlab.com/uploads/-/system/user/avatar/6616462/avatar.png",
          "web_url": "https://gitlab.com/jwilsonrh"
        },
        "created_at": "2023-07-19T15:13:20.679Z",
        "updated_at": "2023-07-19T15:13:20.682Z",
        "system": true,
        "noteable_id": 228770482,
        "noteable_type": "MergeRequest",
        "project_id": 20363472,
        "resolvable": false,
        "confidential": false,
        "internal": false,
        "imported": false,
        "imported_from": "none",
        "noteable_iid": 777,
        "commands_changes": {}
      }
    ]
  },
  {
    "id": "72152e00daa618e4b79dabec3098cade398f7577",
    "individual_note": true,
    "notes": [
      {
        "id": 1476993527,
        "type": null,
        "body": "changed the description",
        "attachment": null,
        "author": {
          "id": 6616462,
          "username": "jwilsonrh",
          "name": "Jarod Wilson",
          "state": "active",
          "locked": false,
          "avatar_url": "https://gitlab.com/uploads/-/system/user/avatar/6616462/avatar.png",
          "web_url": "https://gitlab.com/jwilsonrh"
        },
        "created_at": "2023-07-19T15:13:50.142Z",
        "updated_at": "2023-07-19T15:13:50.145Z",
        "system": true,
        "noteable_id": 228770482,
        "noteable_type": "MergeRequest",
        "project_id": 20363472,
        "resolvable": false,
        "confidential": false,
        "internal": false,
        "imported": false,
        "imported_from": "none",
        "noteable_iid": 777,
        "commands_changes": {}
      }
    ]
  },
  {
    "id": "2ffdb7f5aea749de85a0aed14a1f59dc71c689b4",
    "individual_note": true,
    "notes": [
      {
        "id": 1477157758,
        "type": null,
        "body": "changed the description",
        "attachment": null,
        "author": {
          "id": 6616462,
          "username": "jwilsonrh",
          "name": "Jarod Wilson",
          "state": "active",
          "locked": false,
          "avatar_url": "https://gitlab.com/uploads/-/system/user/avatar/6616462/avatar.png",
          "web_url": "https://gitlab.com/jwilsonrh"
        },
        "created_at": "2023-07-19T16:14:09.209Z",
        "updated_at": "2023-07-19T16:14:09.211Z",
        "system": true,
        "noteable_id": 228770482,
        "noteable_type": "MergeRequest",
        "project_id": 20363472,
        "resolvable": false,
        "confidential": false,
        "internal": false,
        "imported": false,
        "imported_from": "none",
        "noteable_iid": 777,
        "commands_changes": {}
      }
    ]
  },
  {
    "id": "8ad3bacf50a353a6fbb58ddbff1bca785ebe4bd1",
    "individual_note": true,
    "notes": [
      {
        "id": 1477158035,
        "type": null,
        "body": "No missing upstream fixes for MR 777 found at this time.\n\n\nLast updated at 2023-07-20T11:31:31.",
        "attachment": null,
        "author": {
          "id": 8143989,
          "username": "cki-kwf-bot",
          "name": "CKI KWF Bot",
          "state": "active",
          "locked": false,
          "avatar_url": "https://secure.gravatar.com/avatar/09f64894ad2dda42a9783c16ca1eca3a12076da842d573afea3d5f50206c659f?s=80&d=identicon",
          "web_url": "https://gitlab.com/cki-kwf-bot"
        },
        "created_at": "2023-07-19T16:14:19.735Z",
        "updated_at": "2023-07-20T11:31:32.927Z",
        "system": false,
        "noteable_id": 228770482,
        "noteable_type": "MergeRequest",
        "project_id": 20363472,
        "resolvable": false,
        "confidential": false,
        "internal": false,
        "imported": false,
        "imported_from": "none",
        "noteable_iid": 777,
        "commands_changes": {}
      }
    ]
  },
  {
    "id": "7702c28087c4e897775b0dc1c82ee05fa983298f",
    "individual_note": true,
    "notes": [
      {
        "id": 1478788393,
        "type": null,
        "body": "changed the description",
        "attachment": null,
        "author": {
          "id": 6616462,
          "username": "jwilsonrh",
          "name": "Jarod Wilson",
          "state": "active",
          "locked": false,
          "avatar_url": "https://gitlab.com/uploads/-/system/user/avatar/6616462/avatar.png",
          "web_url": "https://gitlab.com/jwilsonrh"
        },
        "created_at": "2023-07-20T05:52:37.481Z",
        "updated_at": "2023-07-20T05:52:37.483Z",
        "system": true,
        "noteable_id": 228770482,
        "noteable_type": "MergeRequest",
        "project_id": 20363472,
        "resolvable": false,
        "confidential": false,
        "internal": false,
        "imported": false,
        "imported_from": "none",
        "noteable_iid": 777,
        "commands_changes": {}
      }
    ]
  },
  {
    "id": "b9e2fa5ef21e9abf7b349026e48ffe1dc3d5f199",
    "individual_note": true,
    "notes": [
      {
        "id": 1479465553,
        "type": null,
        "body": "changed the description",
        "attachment": null,
        "author": {
          "id": 5991344,
          "username": "ptalbert",
          "name": "Patrick Talbert",
          "state": "active",
          "locked": false,
          "avatar_url": "https://secure.gravatar.com/avatar/f8856a671e75c6e69fcd9afed65944577e5cfc8a278ddbeaf2a2254e5248135b?s=80&d=identicon",
          "web_url": "https://gitlab.com/ptalbert"
        },
        "created_at": "2023-07-20T11:31:11.568Z",
        "updated_at": "2023-07-20T11:31:11.569Z",
        "system": true,
        "noteable_id": 228770482,
        "noteable_type": "MergeRequest",
        "project_id": 20363472,
        "resolvable": false,
        "confidential": false,
        "internal": false,
        "imported": false,
        "imported_from": "none",
        "noteable_iid": 777,
        "commands_changes": {}
      }
    ]
  },
  {
    "id": "f0277a29f3652ad8a49751278ce0fa52511dfc3f",
    "individual_note": true,
    "notes": [
      {
        "id": 1556157954,
        "type": null,
        "body": "**Fixes Status:** ~\"Fixes::OK\"\nNo missing upstream fixes for MR 777 found at this time.\n\n\n---\n\n<small>Updated 2024-07-18 10:48 UTC by fixes - [KWF FAQ](https://red.ht/kernel_workflow_doc) - [Slack #team-kernel-workflow](https://redhat-internal.slack.com/archives/C04LRUPMJQ5) - [Source](https://gitlab.com/cki-project/kernel-workflow/-/blob/main/webhook/fixes.py) - [Documentation](https://gitlab.com/cki-project/kernel-workflow/-/blob/main/docs/README.fixes.md) - [Report an issue](https://gitlab.com/cki-project/kernel-workflow/-/issues/new?issue%5Btitle%5D=fixes%20webhook%20issue)</small>",
        "attachment": null,
        "author": {
          "id": 8143989,
          "username": "cki-kwf-bot",
          "name": "CKI KWF Bot",
          "state": "active",
          "locked": false,
          "avatar_url": "https://secure.gravatar.com/avatar/09f64894ad2dda42a9783c16ca1eca3a12076da842d573afea3d5f50206c659f?s=80&d=identicon",
          "web_url": "https://gitlab.com/cki-kwf-bot"
        },
        "created_at": "2023-09-13T03:37:35.122Z",
        "updated_at": "2024-07-18T10:48:26.606Z",
        "system": false,
        "noteable_id": 228770482,
        "noteable_type": "MergeRequest",
        "project_id": 20363472,
        "resolvable": false,
        "confidential": false,
        "internal": false,
        "imported": false,
        "imported_from": "none",
        "noteable_iid": 777,
        "commands_changes": {}
      }
    ]
  },
  {
    "id": "92140f1fcfd83c09bb650ad780725346c58e7b5d",
    "individual_note": true,
    "notes": [
      {
        "id": 2001982251,
        "type": null,
        "body": "mentioned in merge request cki-project/kernel-workflow!1465",
        "attachment": null,
        "author": {
          "id": 6616462,
          "username": "jwilsonrh",
          "name": "Jarod Wilson",
          "state": "active",
          "locked": false,
          "avatar_url": "https://gitlab.com/uploads/-/system/user/avatar/6616462/avatar.png",
          "web_url": "https://gitlab.com/jwilsonrh"
        },
        "created_at": "2024-07-16T14:30:21.737Z",
        "updated_at": "2024-07-16T14:30:21.750Z",
        "system": true,
        "noteable_id": 228770482,
        "noteable_type": "MergeRequest",
        "project_id": 20363472,
        "resolvable": false,
        "confidential": false,
        "internal": false,
        "imported": false,
        "imported_from": "none",
        "noteable_iid": 777,
        "commands_changes": {}
      }
    ]
  },
  {
    "id": "3af707686dc8ff35a0f43c42ad84f7346e23b571",
    "individual_note": true,
    "notes": [
      {
        "id": 2002480841,
        "type": null,
        "body": "request-ack-evaluation",
        "attachment": null,
        "author": {
          "id": 6616462,
          "username": "jwilsonrh",
          "name": "Jarod Wilson",
          "state": "active",
          "locked": false,
          "avatar_url": "https://gitlab.com/uploads/-/system/user/avatar/6616462/avatar.png",
          "web_url": "https://gitlab.com/jwilsonrh"
        },
        "created_at": "2024-07-16T20:23:52.061Z",
        "updated_at": "2024-07-16T20:23:52.061Z",
        "system": false,
        "noteable_id": 228770482,
        "noteable_type": "MergeRequest",
        "project_id": 20363472,
        "resolvable": false,
        "confidential": false,
        "internal": false,
        "imported": false,
        "imported_from": "none",
        "noteable_iid": 777,
        "commands_changes": {}
      }
    ]
  }
]
