[
  {
    "id": 1466016,
    "blocking_merge_request": {
      "id": 228770482,
      "iid": 777,
      "project_id": 20363472,
      "title": "Draft: HID: logitech-hidpp: Retry commands when device is busy",
      "description": "This is a dummy merge request, please ignore it. There's an upstream Fixes: patch for the patch included in this MR, and I'm testing some things w/fixes detection and such.\n\nOmitted-fix: 7c28afd5512e371773dbb2bf95a31ed5625651d9  \nTesting, testing.  \n\nOmitted-fix: 6199d23c91ce53bfed455f09a8c5ed170d516824  \n\nSigned-off-by: Jarod Wilson <jarod@redhat.com>",
      "state": "opened",
      "created_at": "2023-06-06T19:18:02.550Z",
      "updated_at": "2024-08-28T04:22:30.379Z",
      "merged_by": null,
      "merge_user": null,
      "merged_at": null,
      "closed_by": null,
      "closed_at": null,
      "target_branch": "main",
      "source_branch": "fixes-testing",
      "user_notes_count": 10,
      "upvotes": 0,
      "downvotes": 0,
      "author": {
        "id": 6616462,
        "username": "jwilsonrh",
        "name": "Jarod Wilson",
        "state": "active",
        "locked": false,
        "avatar_url": "https://gitlab.com/uploads/-/system/user/avatar/6616462/avatar.png",
        "web_url": "https://gitlab.com/jwilsonrh"
      },
      "assignees": [],
      "assignee": null,
      "reviewers": [],
      "source_project_id": 23124132,
      "target_project_id": 20363472,
      "labels": [
        "CKI::Failed",
        "CKI_RHEL::Failed::build",
        "CKI_RT::Warning",
        "CommitRefs::OK",
        "Dependencies::OK",
        "Fixes::OK",
        "JIRA::Missing",
        "Merge::OK",
        "Signoff::OK",
        "Subsystem:hid"
      ],
      "draft": true,
      "imported": false,
      "imported_from": "none",
      "work_in_progress": true,
      "milestone": {
        "id": 3251461,
        "iid": 36,
        "group_id": 10810393,
        "title": "RHEL-8.10.0",
        "description": "Red Hat Enterprise Linux 8, release 8.10.0",
        "state": "active",
        "created_at": "2023-08-29T14:08:46.930Z",
        "updated_at": "2023-08-29T14:08:46.930Z",
        "due_date": null,
        "start_date": null,
        "expired": false,
        "web_url": "https://gitlab.com/groups/redhat/rhel/src/kernel/-/milestones/36"
      },
      "merge_when_pipeline_succeeds": false,
      "merge_status": "can_be_merged",
      "detailed_merge_status": "not_approved",
      "merge_after": null,
      "sha": "5c2295d082fe72a9096c6e90ba5df2471cc835d8",
      "merge_commit_sha": null,
      "squash_commit_sha": null,
      "discussion_locked": null,
      "should_remove_source_branch": null,
      "force_remove_source_branch": true,
      "prepared_at": "2023-06-06T19:18:12.227Z",
      "allow_collaboration": false,
      "allow_maintainer_to_push": false,
      "reference": "!777",
      "references": {
        "short": "!777",
        "relative": "!777",
        "full": "redhat/rhel/src/kernel/rhel-8-sandbox!777"
      },
      "web_url": "https://gitlab.com/redhat/rhel/src/kernel/rhel-8-sandbox/-/merge_requests/777",
      "time_stats": {
        "time_estimate": 0,
        "total_time_spent": 0,
        "human_time_estimate": null,
        "human_total_time_spent": null
      },
      "squash": false,
      "squash_on_merge": false,
      "task_completion_status": {
        "count": 0,
        "completed_count": 0
      },
      "has_conflicts": false,
      "blocking_discussions_resolved": true,
      "approvals_before_merge": null
    },
    "blocked_merge_request": {
      "id": 230149774,
      "iid": 778,
      "project_id": 20363472,
      "title": "kernel: add a file that indicates when you have been hacked",
      "description": "\nJIRA: https://issues.redhat.com/browse/RHEL-29481\nCVE: CVE-2023-52617\n\nHere we go.",
      "state": "opened",
      "created_at": "2023-06-13T11:02:54.416Z",
      "updated_at": "2024-10-03T19:13:08.130Z",
      "merged_by": null,
      "merge_user": null,
      "merged_at": null,
      "closed_by": null,
      "closed_at": null,
      "target_branch": "main",
      "source_branch": "sandbox_test",
      "user_notes_count": 15,
      "upvotes": 0,
      "downvotes": 0,
      "author": {
        "id": 5991344,
        "username": "ptalbert",
        "name": "Patrick Talbert",
        "state": "active",
        "locked": false,
        "avatar_url": "https://secure.gravatar.com/avatar/f8856a671e75c6e69fcd9afed65944577e5cfc8a278ddbeaf2a2254e5248135b?s=80&d=identicon",
        "web_url": "https://gitlab.com/ptalbert"
      },
      "assignees": [],
      "assignee": null,
      "reviewers": [
        {
          "id": 8413914,
          "username": "lzampier",
          "name": "Lucas Zampieri",
          "state": "active",
          "locked": false,
          "avatar_url": "https://gitlab.com/uploads/-/system/user/avatar/8413914/avatar.png",
          "web_url": "https://gitlab.com/lzampier"
        }
      ],
      "source_project_id": 46816989,
      "target_project_id": 20363472,
      "labels": [
        "Acks::Blocked",
        "Blocked",
        "Bugzilla::NeedsReview",
        "CKI::Canceled",
        "CKI_RHEL::Canceled",
        "CKI_RT::Canceled",
        "CommitRefs::Missing",
        "Dependencies::OK",
        "ExternalCI::OK",
        "Fixes::OK",
        "JIRA::Missing",
        "Merge::OK",
        "Signoff::NeedsReview"
      ],
      "draft": false,
      "imported": false,
      "imported_from": "none",
      "work_in_progress": false,
      "milestone": {
        "id": 3251461,
        "iid": 36,
        "group_id": 10810393,
        "title": "RHEL-8.10.0",
        "description": "Red Hat Enterprise Linux 8, release 8.10.0",
        "state": "active",
        "created_at": "2023-08-29T14:08:46.930Z",
        "updated_at": "2023-08-29T14:08:46.930Z",
        "due_date": null,
        "start_date": null,
        "expired": false,
        "web_url": "https://gitlab.com/groups/redhat/rhel/src/kernel/-/milestones/36"
      },
      "merge_when_pipeline_succeeds": false,
      "merge_status": "can_be_merged",
      "detailed_merge_status": "not_approved",
      "merge_after": null,
      "sha": "fa9f1ab4ec5ec02ed2038b9af6e30f18a162a805",
      "merge_commit_sha": null,
      "squash_commit_sha": null,
      "discussion_locked": null,
      "should_remove_source_branch": null,
      "force_remove_source_branch": true,
      "prepared_at": "2023-06-13T11:03:02.451Z",
      "allow_collaboration": false,
      "allow_maintainer_to_push": false,
      "reference": "!778",
      "references": {
        "short": "!778",
        "relative": "!778",
        "full": "redhat/rhel/src/kernel/rhel-8-sandbox!778"
      },
      "web_url": "https://gitlab.com/redhat/rhel/src/kernel/rhel-8-sandbox/-/merge_requests/778",
      "time_stats": {
        "time_estimate": 0,
        "total_time_spent": 0,
        "human_time_estimate": null,
        "human_total_time_spent": null
      },
      "squash": false,
      "squash_on_merge": false,
      "task_completion_status": {
        "count": 0,
        "completed_count": 0
      },
      "has_conflicts": false,
      "blocking_discussions_resolved": false,
      "approvals_before_merge": null
    },
    "project_id": 20363472
  },
  {
    "id": 1466017,
    "blocking_merge_request": {
      "id": 331702953,
      "iid": 1611,
      "project_id": 19212625,
      "title": "Draft: Set gitlab MR dependency \"blocks\" links from Depends: tags",
      "description": "This updates the DependsMixin.depends_mrs method so when it fetches an MR's depends MRs, then we compare them to the \"blocks\" API results. The result is that if the MR has `Depends:` tags which are not already set up as \"blocks\" in the API then we add them. Or if the \"blocks\" API shows some MR (from the same project) which is not called out in a `Depends:` tag then we remove that block.\n\nIt is possible more than one hook may be doing this on the same MR at the same time so if any of the add/remove API calls fail then we just log it and move on :grimacing: .\n\nSigned-off-by: Patrick Talbert <ptalbert@redhat.com>",
      "state": "opened",
      "created_at": "2024-10-03T12:36:24.454Z",
      "updated_at": "2024-10-03T19:09:04.788Z",
      "merged_by": null,
      "merge_user": null,
      "merged_at": null,
      "closed_by": null,
      "closed_at": null,
      "target_branch": "main",
      "source_branch": "blocks_data",
      "user_notes_count": 7,
      "upvotes": 0,
      "downvotes": 0,
      "author": {
        "id": 5991344,
        "username": "ptalbert",
        "name": "Patrick Talbert",
        "state": "active",
        "locked": false,
        "avatar_url": "https://secure.gravatar.com/avatar/f8856a671e75c6e69fcd9afed65944577e5cfc8a278ddbeaf2a2254e5248135b?s=80&d=identicon",
        "web_url": "https://gitlab.com/ptalbert"
      },
      "assignees": [],
      "assignee": null,
      "reviewers": [],
      "source_project_id": 21821316,
      "target_project_id": 19212625,
      "labels": [
        "CWF::Issue::Missing"
      ],
      "draft": true,
      "imported": false,
      "imported_from": "none",
      "work_in_progress": true,
      "milestone": null,
      "merge_when_pipeline_succeeds": false,
      "merge_status": "can_be_merged",
      "detailed_merge_status": "not_approved",
      "merge_after": null,
      "sha": "5de9161527b5d64b121a6a5a94ed2a1be645a86b",
      "merge_commit_sha": null,
      "squash_commit_sha": null,
      "discussion_locked": null,
      "should_remove_source_branch": null,
      "force_remove_source_branch": true,
      "prepared_at": "2024-10-03T12:38:44.565Z",
      "allow_collaboration": true,
      "allow_maintainer_to_push": true,
      "reference": "!1611",
      "references": {
        "short": "!1611",
        "relative": "!1611",
        "full": "cki-project/kernel-workflow!1611"
      },
      "web_url": "https://gitlab.com/cki-project/kernel-workflow/-/merge_requests/1611",
      "time_stats": {
        "time_estimate": 0,
        "total_time_spent": 0,
        "human_time_estimate": null,
        "human_total_time_spent": null
      },
      "squash": false,
      "squash_on_merge": false,
      "task_completion_status": {
        "count": 0,
        "completed_count": 0
      },
      "has_conflicts": false,
      "blocking_discussions_resolved": false,
      "approvals_before_merge": null
    },
    "blocked_merge_request": {
      "id": 230149774,
      "iid": 778,
      "project_id": 20363472,
      "title": "kernel: add a file that indicates when you have been hacked",
      "description": "\nJIRA: https://issues.redhat.com/browse/RHEL-29481\nCVE: CVE-2023-52617\n\nHere we go.",
      "state": "opened",
      "created_at": "2023-06-13T11:02:54.416Z",
      "updated_at": "2024-10-03T19:13:08.130Z",
      "merged_by": null,
      "merge_user": null,
      "merged_at": null,
      "closed_by": null,
      "closed_at": null,
      "target_branch": "main",
      "source_branch": "sandbox_test",
      "user_notes_count": 15,
      "upvotes": 0,
      "downvotes": 0,
      "author": {
        "id": 5991344,
        "username": "ptalbert",
        "name": "Patrick Talbert",
        "state": "active",
        "locked": false,
        "avatar_url": "https://secure.gravatar.com/avatar/f8856a671e75c6e69fcd9afed65944577e5cfc8a278ddbeaf2a2254e5248135b?s=80&d=identicon",
        "web_url": "https://gitlab.com/ptalbert"
      },
      "assignees": [],
      "assignee": null,
      "reviewers": [
        {
          "id": 8413914,
          "username": "lzampier",
          "name": "Lucas Zampieri",
          "state": "active",
          "locked": false,
          "avatar_url": "https://gitlab.com/uploads/-/system/user/avatar/8413914/avatar.png",
          "web_url": "https://gitlab.com/lzampier"
        }
      ],
      "source_project_id": 46816989,
      "target_project_id": 20363472,
      "labels": [
        "Acks::Blocked",
        "Blocked",
        "Bugzilla::NeedsReview",
        "CKI::Canceled",
        "CKI_RHEL::Canceled",
        "CKI_RT::Canceled",
        "CommitRefs::Missing",
        "Dependencies::OK",
        "ExternalCI::OK",
        "Fixes::OK",
        "JIRA::Missing",
        "Merge::OK",
        "Signoff::NeedsReview"
      ],
      "draft": false,
      "imported": false,
      "imported_from": "none",
      "work_in_progress": false,
      "milestone": {
        "id": 3251461,
        "iid": 36,
        "group_id": 10810393,
        "title": "RHEL-8.10.0",
        "description": "Red Hat Enterprise Linux 8, release 8.10.0",
        "state": "active",
        "created_at": "2023-08-29T14:08:46.930Z",
        "updated_at": "2023-08-29T14:08:46.930Z",
        "due_date": null,
        "start_date": null,
        "expired": false,
        "web_url": "https://gitlab.com/groups/redhat/rhel/src/kernel/-/milestones/36"
      },
      "merge_when_pipeline_succeeds": false,
      "merge_status": "can_be_merged",
      "detailed_merge_status": "not_approved",
      "merge_after": null,
      "sha": "fa9f1ab4ec5ec02ed2038b9af6e30f18a162a805",
      "merge_commit_sha": null,
      "squash_commit_sha": null,
      "discussion_locked": null,
      "should_remove_source_branch": null,
      "force_remove_source_branch": true,
      "prepared_at": "2023-06-13T11:03:02.451Z",
      "allow_collaboration": false,
      "allow_maintainer_to_push": false,
      "reference": "!778",
      "references": {
        "short": "!778",
        "relative": "!778",
        "full": "redhat/rhel/src/kernel/rhel-8-sandbox!778"
      },
      "web_url": "https://gitlab.com/redhat/rhel/src/kernel/rhel-8-sandbox/-/merge_requests/778",
      "time_stats": {
        "time_estimate": 0,
        "total_time_spent": 0,
        "human_time_estimate": null,
        "human_total_time_spent": null
      },
      "squash": false,
      "squash_on_merge": false,
      "task_completion_status": {
        "count": 0,
        "completed_count": 0
      },
      "has_conflicts": false,
      "blocking_discussions_resolved": false,
      "approvals_before_merge": null
    },
    "project_id": 19212625
  }
]
