{
  "data": {
    "project": {
      "mergeRequests": {
        "nodes": [
          {
            "approved": true,
            "author": {
              "gid": "gid://gitlab/User/9589137",
              "name": "Scott Weaver",
              "email": "scweaver@redhat.com",
              "username": "scweaver"
            },
            "commitCount": 1,
            "description": "This updates the driver names to use underscore instead of a dash and\nupdates the support status for the ConnectX-9 and BlueField-3 devices.\n\nSigned-off-by: Scott Weaver <scweaver@redhat.com>",
            "global_id": "gid://gitlab/MergeRequest/354643826",
            "diffHeadSha": "86419fda1ef20624ce657c514d0c665b4998f75d",
            "state": "opened",
            "draft": false,
            "preparedAt": "2025-01-10T19:20:04Z",
            "sourceBranch": "hrs_update",
            "targetBranch": "os-build",
            "title": "[redhat] rh_messages.h: driver and device updates",
            "project": {
              "id": "gid://gitlab/Project/13604247"
            },
            "labels": {
              "pageInfo": {
                "hasNextPage": false,
                "endCursor": "Ng"
              },
              "nodes": [
                {
                  "title": "Acks::OK"
                },
                {
                  "title": "CKI::OK"
                },
                {
                  "title": "Configs::OK"
                },
                {
                  "title": "Merge::OK"
                },
                {
                  "title": "Signoff::OK"
                },
                {
                  "title": "readyForMerge"
                }
              ]
            },
            "files": [
              {
                "path": "kernel/rh_messages.h"
              }
            ],
            "headPipeline": {
              "id": "gid://gitlab/Ci::Pipeline/1620137241"
            },
            "webUrl": "https://gitlab.com/cki-project/kernel-ark/-/merge_requests/3591",
            "detailedMergeStatus": "MERGEABLE",
            "blockingMergeRequests": {
              "visibleMergeRequests": []
            }
          }
        ]
      }
    }
  },
  "correlationId": "0818f0ad53aab25e09eb5c40e5e85f84"
}
