{
  "data": {
    "project": {
      "mr": {
        "approved": true,
        "author": {
          "gid": "gid://gitlab/User/8129990",
          "name": "Ewan D. Milne",
          "email": "emilne@redhat.com",
          "username": "e-milne"
        },
        "commitCount": 7,
        "description": "JIRA: https://issues.redhat.com/browse/RHEL-30580\nUpstream Status: From upstream linux mainline\n    \nUpdate driver version to 8.8.1.0.50.\n    \nscsi: mpi3mr: Driver version update to 8.8.1.0.50\nscsi: mpi3mr: Update MPI Headers to revision 31\nscsi: mpi3mr: Debug ability improvements\nscsi: mpi3mr: Set the WriteSame Divert Capability in the IOCInit MPI Request\nscsi: mpi3mr: Clear ioctl blocking flag for an unresponsive controller\nscsi: mpi3mr: Set MPI request flags appropriately\nscsi: mpi3mr: Block devices are not removed even when VDs are offlined\n\nSigned-off-by: Ewan D. Milne <emilne@redhat.com>",
        "global_id": "gid://gitlab/MergeRequest/305138948",
        "labels": {
          "pageInfo": {
            "hasNextPage": false,
            "endCursor": "MTM"
          },
          "nodes": [
            {
              "title": "Acks::OK"
            },
            {
              "title": "Bugzilla::OK"
            },
            {
              "title": "CKI::OK"
            },
            {
              "title": "CodeChanged::v2"
            },
            {
              "title": "CommitRefs::OK"
            },
            {
              "title": "Dependencies::OK"
            },
            {
              "title": "ExternalCI::OK"
            },
            {
              "title": "Fixes::OK"
            },
            {
              "title": "JIRA::OK"
            },
            {
              "title": "Merge::OK"
            },
            {
              "title": "Signoff::OK"
            },
            {
              "title": "Subsystem:scsi_core"
            },
            {
              "title": "readyForMerge"
            }
          ]
        },
        "state": "opened",
        "draft": false,
        "files": [
          {
            "path": "drivers/scsi/mpi3mr/mpi/mpi30_cnfg.h"
          },
          {
            "path": "drivers/scsi/mpi3mr/mpi/mpi30_image.h"
          },
          {
            "path": "drivers/scsi/mpi3mr/mpi/mpi30_ioc.h"
          },
          {
            "path": "drivers/scsi/mpi3mr/mpi/mpi30_transport.h"
          },
          {
            "path": "drivers/scsi/mpi3mr/mpi3mr.h"
          },
          {
            "path": "drivers/scsi/mpi3mr/mpi3mr_app.c"
          },
          {
            "path": "drivers/scsi/mpi3mr/mpi3mr_fw.c"
          },
          {
            "path": "drivers/scsi/mpi3mr/mpi3mr_os.c"
          }
        ],
        "preparedAt": "2024-05-29T21:16:09Z",
        "sourceBranch": "RHEL-30580",
        "targetBranch": "main",
        "title": "scsi: mpi3mr: Driver version update to 8.8.1.0.50",
        "headPipeline": {
          "id": "gid://gitlab/Ci::Pipeline/1310956305"
        },
        "project": {
          "id": "gid://gitlab/Project/24152864"
        }
      }
    }
  }
}
